<svg version="1.1" xmlns="http://www.w3.org/2000/svg" xmlns:xlink="http://www.w3.org/1999/xlink" width="16" height="16" viewBox="0 0 48 48" enable-background="new 0 0 48 48" xml:space="preserve">
  <g>
  	<defs>
  		<path id="SVGID_1_" d="M44.5,20H42h-8.2H24v8.5h11.8C34.7,33.9,30.1,37,24,37c-7.2,0-13-5.8-13-13s5.8-13,13-13
  			c3.1,0,5.9,1.1,8.1,2.9l6.4-6.4C34.6,4.1,29.6,2,24,2C11.8,2,2,11.8,2,24s9.8,22,22,22c11,0,21-8,21-22C45,22.7,44.8,21.3,44.5,20
  			z"/>
  	</defs>
  	<clipPath id="SVGID_2_">
  		<use xlink:href="#SVGID_1_"  overflow="visible"/>
  	</clipPath>
  	<polygon clip-path="url(#SVGID_2_)" fill="#FBBC05" points="0,37 0,11 17,24 	"/>
  	<polygon clip-path="url(#SVGID_2_)" fill="#EA4335" points="0,11 17,24 24,17.9 48,14 48,0 0,0 	"/>
  	<polygon clip-path="url(#SVGID_2_)" fill="#34A853" points="0,37 30,14 37.9,15 48,0 48,48 0,48 	"/>
  	<polygon clip-path="url(#SVGID_2_)" fill="#4285F4" points="48,48 17,24 13,21 48,11 	"/>
  </g>
</svg>
