<svg xmlns="http://www.w3.org/2000/svg" width="48" height="24" viewBox="0 0 48 24">
  <defs>
    <style>
      .cls-1 {
        fill: none;
      }

      .cls-1, .cls-3 {
        stroke: #0e94c0;
        stroke-width: 1.278px;
      }

      .cls-2, .cls-3 {
        fill: #0e94c0;
      }

      .cls-2, .cls-4 {
        fill-rule: evenodd;
      }

      .cls-4 {
        fill: #fff;
      }
    </style>
  </defs>
  <circle class="cls-1" cx="11.639" cy="11.639" r="11"/>
  <path id="edit" class="cls-2" d="M18.752,10.486L12.567,16.67a0.291,0.291,0,0,1-.083.056L9.343,17.977a0.272,0.272,0,0,1-.1.014,0.292,0.292,0,0,1-.181-0.07,0.284,0.284,0,0,1-.056-0.278L10.26,14.5a0.288,0.288,0,0,1,.056-0.083L16.5,8.234Zm2.029-3.1L19.6,6.205a0.763,0.763,0,0,0-1.07,0L17.251,7.484,19.5,9.735l1.279-1.279A0.763,0.763,0,0,0,20.781,7.387Z" transform="translate(-3.361 -0.361)"/>
  <circle id="Ellipse_39_copy" data-name="Ellipse 39 copy" class="cls-3" cx="35.639" cy="11.639" r="11"/>
  <path id="edit_copy" data-name="edit copy" class="cls-4" d="M42.752,10.486L36.567,16.67a0.291,0.291,0,0,1-.083.056l-3.141,1.251a0.271,0.271,0,0,1-.1.014,0.292,0.292,0,0,1-.181-0.07,0.284,0.284,0,0,1-.056-0.278L34.26,14.5a0.288,0.288,0,0,1,.056-0.083L40.5,8.234Zm2.029-3.1L43.6,6.205a0.763,0.763,0,0,0-1.07,0L41.251,7.484,43.5,9.735l1.279-1.279A0.763,0.763,0,0,0,44.781,7.387Z" transform="translate(-3.361 -0.361)"/>
</svg>
